{
  "provinces": [
    {
      "name": "Province 3 Bagmati",
      "districts": [
        {
          "name": "Lalitpur",
          "cities": [
            "Balkumari",
            "Jwagal",
            "Kupandol",
            "Pulchowk",
            "Jawalakhel",
            "Lagankhel",
            "Kumaripati",
            "Imadol",
            "Patan",
            "Lubhu",
            "Gwarko",
            "Tikathali",
            "Changathali",
            "Lamatar",
            "Patan Sundhara",
            "Krishna Mandir",
            "Satdobato",
            "Dhapakhel",
            "Harisiddhi",
            "Thaiba",
            "Hattiban",
            "Godawari",
            "Chalnakhel",
            "Talchhikhel",
            "Thashikhel",
            "Mahalaxmisthan",
            "Ekantakuna",
            "Bagdol",
            "Sanepa",
            "Jhamsikhel",
            "Dhobighat",
            "Sunakothi",
            "Nakhkhu",
            "Kusunti",
            "Bhaisepati",
            "Khumaltar",
            "Nakkhipot",
            "Manbhawan",
            "Thecho",
            "Bungmati",
            "Khokana",
            "Lele",
            "Gusingal",
            "Sanchal",
            "Chyasal",
            "Dholahiti",
            "Bakhundol",
            "Taukhel",
            "Bangalamukhi"
          ]
        },
        {
          "name": "Kathmandu",
          "cities": [
            "Koteshwar",
            "Tinkune",
            "Baneshwar",
            "Minbhawan",
            "Sinamangal",
            "Airport",
            "Gaushala",
            "Chabahil",
            "Mitrapark",
            "Maitighar",
            "Thapathali",
            "Singha Durbar",
            "Putalisadak",
            "Anamnagar",
            "Dillibazar",
            "Newroad",
            "Bagbazar",
            "Nayabazar",
            "Sorhakhutte",
            "Balaju",
            "Gongabu Buspark",
            "Jorpati",
            "Kapan",
            "Budhanilkantha",
            "Sitapaila",
            "Arubari",
            "Kalanki",
            "Balkhu",
            "Kirtipur",
            "Khasibazar",
            "Sifal",
            "Bafal",
            "Swambhu",
            "Thulobharyang",
            "Sanobharyang",
            "Tyanglafaant",
            "Chobhar",
            "Kuleshwar",
            "Kalimati",
            "Soltimod",
            "Teku",
            "Tripureshwar",
            "Sundhara",
            "Ratnapark",
            "Durbar Marg",
            "Jamal",
            "Lajimpat",
            "Lainchaur",
            "Hattisar",
            "Narayanhiti",
            "Thamel",
            "Handigaun",
            "Kamaladi",
            "Maitidevi",
            "Gyaneshwar",
            "Pepsicola",
            "Dhumbarahi",
            "Jadibuti",
            "Gothatar",
            "Mulpani",
            "Makalbari",
            "Boudha",
            "Manamaiju",
            "Nepaltar",
            "Tokha",
            "Baniyatar",
            "Mahakal",
            "Samakhusi",
            "Chakrapath",
            "Maharajgunj",
            "Chhauni",
            "Dhungeadda",
            "Satungal",
            "Naikap",
            "Thankot",
            "Chandragiri",
            "Basundhara",
            "Sundarijal",
            "Machhapokhari",
            "Futung",
            "Baluwatar",
            "Tangal",
            "Babarmahal",
            "Kadaghari",
            "Shankhamul",
            "Dhapasi",
            "Tahachal",
            "Dallu",
            "Kapurdhara",
            "Khusibu",
            "Chamati",
            "Hiledol",
            "Bashbari",
            "Syuchatar",
            "Golddhunga",
            "Purano Baneshwar",
            "Mid Baneshwar",
            "Panipokhari",
            "Matatirtha",
            "Tinthana",
            "Bhatkekopul",
            "Ratopul",
            "Setopul",
            "Kalopul",
            "Dhungedhara",
            "Raniban",
            "Sukedhara",
            "Ghattekulo",
            "Chandol"
          ]
        },
        {
          "name": "Bhaktapur",
          "cities": [
            "Lokanthali",
            "Kausaltar",
            "Gathhaghar",
            "Balkot",
            "Madhyapur Thimi",
            "Naya Thimi",
            "Purano Thimi",
            "Duwakot",
            "Radhe Radhe",
            "Sallaghari",
            "Bode",
            "Jhaukhel",
            "Dudhpati",
            "Liwali",
            "Suryabinayak",
            "Kamalbinayak",
            "Jagati",
            "Sipadol",
            "Katunje",
            "Dadhikot",
            "Gankhu",
            "Changunarayan",
            "Kharipati",
            "Nagarkot"
          ]
        },
        {
          "name": "Kavrepalanchok",
          "cities": [
            "Dhulikhel",
            "Banepa",
            "Panauti",
            "Sanga"
          ]
        }
      ]
    }
  ]
}